Status: OK
Time Taken: 55
Size: 540
Timestamp: Wed May 08 22:58:33 CEST 2019
TestStep: Element: Page's value

----------------- Messages ------------------------------

----------------- Properties ------------------------------
HTTP Version: HTTP/1.1
Endpoint: https://reqres.in
Method: GET
StatusCode: 200
URL: https://reqres.in/api/users?page=2

---------------- Request ---------------------------
Connection: [Keep-Alive]
User-Agent: [Apache-HttpClient/4.1.1 (java 1.5)]
Host: [reqres.in]
Accept-Encoding: [gzip,deflate]

GET https://reqres.in/api/users?page=2 HTTP/1.1
Accept-Encoding: gzip,deflate
Host: reqres.in
Connection: Keep-Alive
User-Agent: Apache-HttpClient/4.1.1 (java 1.5)


---------------- Response --------------------------
Transfer-Encoding: [chunked]
Server: [cloudflare]
CF-RAY: [4d3e5a3a7a16c781-AMS]
Access-Control-Allow-Origin: [*]
Connection: [keep-alive]
Date: [Wed, 08 May 2019 20:58:33 GMT]
Via: [1.1 vegur]
CF-Cache-Status: [HIT]
Etag: [W/"21c-V3l8h04l5/8zLV+i3u8GJo8G3Y8"]
Cache-Control: [public, max-age=14400]
Content-Encoding: [gzip]
Set-Cookie: [__cfduid=d1c2343be6f0edd1d866894cd03bac43b1557349113; expires=Thu, 07-May-20 20:58:33 GMT; path=/; domain=.reqres.in; HttpOnly; Secure]
Vary: [Accept-Encoding]
Expires: [Thu, 09 May 2019 00:58:33 GMT]
#status#: [HTTP/1.1 200 OK]
Content-Type: [application/json; charset=utf-8]
X-Powered-By: [Express]
Expect-CT: [max-age=604800, report-uri="https://report-uri.cloudflare.com/cdn-cgi/beacon/expect-ct"]

{"page":2,"per_page":3,"total":12,"total_pages":4,"data":[{"id":4,"email":"eve.holt@reqres.in","first_name":"Eve","last_name":"Holt","avatar":"https://s3.amazonaws.com/uifaces/faces/twitter/marcoramires/128.jpg"},{"id":5,"email":"charles.morris@reqres.in","first_name":"Charles","last_name":"Morris","avatar":"https://s3.amazonaws.com/uifaces/faces/twitter/stephenmoon/128.jpg"},{"id":6,"email":"tracey.ramos@reqres.in","first_name":"Tracey","last_name":"Ramos","avatar":"https://s3.amazonaws.com/uifaces/faces/twitter/bigmancho/128.jpg"}]}
